{
  "isNew": 1,
  "quizzes": [
    {
      "isNew": 1,
      "quizID": "241",
      "title": "To Kill a Mockingbird Chapter 2",
      "questionCount": "5",
      "subject": {
        "subjectID": "1",
        "name": "Literature",
        "visible": "1",
        "more_menu": "1"
      },
      "status": "active",
      "description": "Scout has to cope with the realization that her teacher is not fair or nice. It's a painful lesson for all children to learn that adults are not always trustworthy. Be sure you understand the relationship between Scout, Miss Carolina, Walter and other students by taking the quiz over Chapter 2 of To Kill a Mockingbird from eNotes! Five questions let you know in a flash if you have a good grasp of the major points of this chapter.",
      "times_started": "12217",
      "sort_number": "3",
      "createdDate": "2012-09-04 18:00:41",
      "modifiedDate": "2018-07-24 22:20:56",
      "topics": [
        {
          "topicID": "933",
          "topicName": "To Kill a Mockingbird",
          "topicAuthor": "Harper Lee",
          "topicViews": "8003587",
          "hasContent": true
        }
      ]
    }
  ]
}